DAINES_Skills_Test_4
…
III. The rest of the test uses another data set. The Juniper_Oils.csv data. Get it loaded and take a look.

Its not exactly tidy either. Get used to that. Its real data collected as part of a collaboration between Young Living Inc.and UVU Microbiology. A number of dead cedar trees were collected and the chemical composition of their essential oil content was measured. The hypothesis was that certain chemicals would degrade over time since they died in fires. So there are a bunch of columns for chemical compounds, and a column for YearsSinceBurn. The values under each chemical are Mass-Spec concentrations.

Lets look at the data first

## # A tibble: 34 x 41
##    SampleID Project Amplicon Tree_Species BurnYear Latitude Longitude
##    <chr>    <chr>   <chr>    <chr>           <dbl>    <dbl>     <dbl>
##  1 LOG-16S Junipe 16S      Juniperus o     2018     41.6     -114.
##  2 LOG-16S Junipe 16S      Juniperus o     2017     40.9     -113.
##  3 LOG-16S Junipe 16S      Juniperus o     2016     37.6     -113.
##  4 LOG-16S Junipe 16S      Juniperus o     2014     39.9     -113.
##  5 LOG-16S Junipe 16S      Juniperus o     2013     41.5     -114.
##  6 LOG-16S Junipe 16S      Juniperus o     2012     40.8     -112.
##  7 LOG-16S Junipe 16S      Juniperus o     2011     40.0     -113.
##  8 LOG-16S Junipe 16S      Juniperus o     2009     40.0     -113.
##  9 LOG-16S Junipe 16S      Juniperus o     2008     41.5     -114.
## 10 LOG-16S Junipe 16S      Juniperus o     2007     41.0     -113.
## #  with 24 more rows, and 34 more variables: Field_Office <chr>,
## #   BLM_Fire_Name <chr>, Tracking_Number <chr>, `alpha-pinene` <dbl>,
## #   `para-cymene` <dbl>, `alpha-terpineol` <dbl>, `cedr-9-ene` <dbl>,
## #   `alpha-cedrene` <dbl>, `beta-cedrene` <dbl>, `cis-thujopsene` <dbl>,
## #   `alpha-himachalene` <dbl>, `beta-chamigrene` <dbl>, cuparene <dbl>,
## #   `compound 1` <dbl>, `alpha-chamigrene` <dbl>, widdrol <dbl>, cedrol <dbl>,
## #   `beta-acorenol` <dbl>, `alpha-acorenol` <dbl>, `gamma-eudesmol` <dbl>,
## #   `beta-eudesmol` <dbl>, `alpha-eudesmol` <dbl>, `cedr-8-en-13-ol` <dbl>,
## #   `cedr-8-en-15-ol` <dbl>, `compound 2` <dbl>, thujopsenal <dbl>,
…
